<?xml version="1.0" encoding="utf-8"?>
<!-- Generator: Adobe Illustrator 21.0.2, SVG Export Plug-In . SVG Version: 6.00 Build 0)  -->
<svg version="1.1" id="Layer_2" xmlns="http://www.w3.org/2000/svg" xmlns:xlink="http://www.w3.org/1999/xlink" x="0px" y="0px"
	 viewBox="0 0 50 50" style="enable-background:new 0 0 50 50;" xml:space="preserve">
<style type="text/css">
	.st0{fill:none;stroke:#000000;stroke-miterlimit:10;}
</style>
<title>Artboard 1</title>
<path class="st0" d="M16.9,2.7v18.5c0,0,3.6,2.5,5.9,1.5s6.5-6.5,11-0.8s0,9.4,0,9.4c-6.5,5-7.5,1-10.9-2.1c-2.4-2.2-6.5,0.4-6,1.3
	l-0.2,20.1"/>
</svg>
